module scrapper

go 1.13

require (
	github.com/PuerkitoBio/goquery v1.5.1 // indirect
	github.com/antchfx/htmlquery v1.2.2 // indirect
	github.com/antchfx/xmlquery v1.2.3 // indirect
	github.com/antchfx/xpath v1.1.4 // indirect
	github.com/davecgh/go-spew v1.1.1 // indirect
	github.com/dgrijalva/jwt-go v3.2.0+incompatible
	github.com/gobwas/glob v0.2.3 // indirect
	github.com/gocolly/colly v1.2.0
	github.com/golang/groupcache v0.0.0-20200121045136-8c9f03a8e57e // indirect
	github.com/golang/protobuf v1.3.3 // indirect
	github.com/gorilla/mux v1.7.4
	github.com/gorilla/websocket v1.4.1
	github.com/kennygrant/sanitize v1.2.4 // indirect
	github.com/machinebox/graphql v0.2.2
	github.com/matryer/is v1.3.0 // indirect
	github.com/mitchellh/mapstructure v1.1.2 // indirect
	github.com/pkg/errors v0.9.1 // indirect
	github.com/prisma/prisma-client-lib-go v0.0.0-20181017161110-68a1f9908416
	github.com/saintfish/chardet v0.0.0-20120816061221-3af4cd4741ca // indirect
	github.com/temoto/robotstxt v1.1.1 // indirect
	golang.org/x/net v0.0.0-20200222125558-5a598a2470a0 // indirect
	google.golang.org/appengine v1.6.5 // indirect
)
